FIFO/fifo.sim/sim_1/behav/xsim/tb_fifo.vcd
$date
   Mon Aug  4 19:21:31 2025
$end
$version
  2020.2
$end
$timescale
  1ps
$end
$scope module tb_fifo $end
$var reg 1 ! clk $end
$var reg 1 " rst $end
$var reg 1 # push $end
$var reg 1 $ pop $end
$var reg 8 % w_data [7:0] $end
$var wire 8 & r_data [7:0] $end
$var wire 1 ' full $end
$var wire 1 ( empty $end
$var parameter 32 ) DATA_WIDTH [31:0] $end
$var parameter 32 * DEPTH [31:0] $end
$scope module DUT $end
$var wire 1 + clk $end
$var wire 1 , rst $end
$var wire 1 - push $end
$var wire 1 . pop $end
$var wire 8 / w_data [7:0] $end
$var wire 8 & r_data [7:0] $end
$var wire 1 ' full $end
$var wire 1 ( empty $end
$var wire 2 0 w_w_addr [1:0] $end
$var wire 2 1 w_r_addr [1:0] $end
$var wire 1 2 w_wr_en $end
$var wire 1 3 w_rd_en $end
$var parameter 32 4 DATA_WIDTH [31:0] $end
$var parameter 32 5 DEPTH [31:0] $end
$scope module U_REG_FILE $end
$var wire 1 + clk $end
$var wire 1 2 wr_en $end
$var wire 1 3 rd_en $end
$var wire 2 0 w_addr [1:0] $end
$var wire 2 1 r_addr [1:0] $end
$var wire 8 / data_in [7:0] $end
$var reg 8 6 data_out [7:0] $end
$var parameter 32 7 DATA_WIDTH [31:0] $end
$var parameter 32 8 DEPTH [31:0] $end
$upscope $end
$scope module U_FIFO_CU $end
$var wire 1 + clk $end
$var wire 1 , rst $end
$var wire 1 - push $end
$var wire 1 . pop $end
$var wire 2 0 w_addr [1:0] $end
$var wire 2 1 r_addr [1:0] $end
$var wire 1 ' full $end
$var wire 1 ( empty $end
$var reg 2 9 w_ptr_reg [1:0] $end
$var reg 2 : w_ptr_next [1:0] $end
$var reg 2 ; r_ptr_reg [1:0] $end
$var reg 2 < r_ptr_next [1:0] $end
$var reg 3 = c_ptr_reg [2:0] $end
$var reg 3 > c_ptr_next [2:0] $end
$var parameter 32 ? DEPTH [31:0] $end
$upscope $end
$upscope $end
$upscope $end
$enddefinitions $end
#0
$dumpvars
0!
1"
0#
0$
b0 %
bx &
0'
1(
b1000 )
b100 *
0+
1,
0-
0.
b0 /
b0 0
b0 1
02
03
b1000 4
b100 5
bx 6
b1000 7
b100 8
b0 9
b0 :
b0 ;
b0 <
b0 =
b0 >
b100 ?
$end
#5000
1!
1+
#10000
0!
0"
0+
0,
#15000
1!
1+
#20000
0!
1#
b10101010 %
0+
1-
b10101010 /
12
b1 :
b1 >
#25000
1!
0'
0(
1+
b1 0
b1 9
b10 :
b1 =
b10 >
#30000
0!
0#
1$
0+
0-
1.
02
13
b1 :
b1 <
b0 >
#35000
1!
b10101010 &
0'
1(
1+
b1 1
03
b10101010 6
b1 ;
b0 =
#40000
0!
1#
0$
b100100 %
0+
1-
0.
b100100 /
12
b10 :
b1 >
#45000
1!
0'
0(
1+
b10 0
b10 9
b11 :
b1 =
b10 >
#50000
0!
b10000001 %
0+
b10000001 /
#55000
1!
0'
0(
1+
b11 0
b11 9
b0 :
b10 =
b11 >
#60000
0!
b1001 %
0+
b1001 /
#65000
1!
0'
0(
1+
b0 0
b0 9
b1 :
b11 =
b100 >
#70000
0!
b1100011 %
0+
b1100011 /
#75000
1!
1'
0(
1+
b1 0
02
b1 9
b100 =
#80000
0!
b1101 %
0+
b1101 /
#85000
1!
1+
#90000
0!
b10001101 %
0+
b10001101 /
#95000
1!
1+
#100000
0!
0#
1$
0+
0-
1.
13
b10 <
b11 >
#105000
1!
b100100 &
0'
0(
1+
b10 1
b100100 6
b10 ;
b11 <
b11 =
b10 >
#110000
0!
0+
#115000
1!
b10000001 &
0'
0(
1+
b11 1
b10000001 6
b11 ;
b0 <
b10 =
b1 >
#120000
0!
0+
#125000
1!
b1001 &
0'
0(
1+
b0 1
b1001 6
b0 ;
b1 <
b1 =
b0 >
#130000
0!
0+
#135000
1!
b1100011 &
0'
1(
1+
b1 1
03
b1100011 6
b1 ;
b0 =
#140000
0!
0+
#145000
1!
1+
#150000
0!
0+
#155000
1!
1+
#160000
0!
1#
1$
b1010101 %
0+
1-
1.
b1010101 /
12
b10 :
b1 >
#165000
1!
0'
0(
1+
b10 0
13
b10 9
b11 :
b10 <
b1 =
#170000
0!
b1010110 %
0+
b1010110 /
#175000
1!
b1010101 &
1+
b11 0
b10 1
b1010101 6
b11 9
b0 :
b10 ;
b11 <
#180000
0!
b1010111 %
0+
b1010111 /
#185000
1!
b1010110 &
1+
b0 0
b11 1
b1010110 6
b0 9
b1 :
b11 ;
b0 <
#190000
0!
1#
0$
b1100101 %
0+
1-
0.
b1100101 /
03
b1 :
b11 <
b10 >
#195000
1!
0'
0(
1+
b1 0
b1 9
b10 :
b10 =
b11 >
#200000
0!
b10010 %
0+
b10010 /
#205000
1!
0'
0(
1+
b10 0
b10 9
b11 :
b11 =
b100 >
#210000
0!
b1 %
0+
b1 /
#215000
1!
1'
0(
1+
b11 0
02
b11 9
b100 =
#220000
0!
b1101 %
0+
b1101 /
#225000
1!
1+
#230000
0!
b11111111 %
0+
b11111111 /
#235000
1!
1+
#240000
0!
0#
1$
0+
0-
1.
13
b0 <
b11 >
#245000
1!
b1010111 &
0'
0(
1+
b0 1
b1010111 6
b0 ;
b1 <
b11 =
b10 >
#250000
0!
0+
#255000
1!
b1100101 &
0'
0(
1+
b1 1
b1100101 6
b1 ;
b10 <
b10 =
b1 >
#260000
0!
0+
#265000
1!
b10010 &
0'
0(
1+
b10 1
b10010 6
b10 ;
b11 <
b1 =
b0 >
#270000
0!
0+
#275000
1!
b1 &
0'
1(
1+
b11 1
03
b1 6
b11 ;
b0 =
#280000
0!
0+
#285000
1!
1+
#290000
0!
0$
0+
0.
